/Users/Daniel/Documents/IntelliJ/Programmverwaltung/src/test/java/at/lang/programmverwaltung/domain/TestForPlugin.java
/Users/Daniel/Documents/IntelliJ/Programmverwaltung/src/test/java/at/lang/programmverwaltung/persistence/file/TestForComputerDao.java
/Users/Daniel/Documents/IntelliJ/Programmverwaltung/src/test/java/at/lang/programmverwaltung/domain/TestForComputer.java
/Users/Daniel/Documents/IntelliJ/Programmverwaltung/src/test/java/at/lang/programmverwaltung/domain/TestForUpdates.java
/Users/Daniel/Documents/IntelliJ/Programmverwaltung/src/test/java/at/lang/programmverwaltung/domain/TestForProgram.java
/Users/Daniel/Documents/IntelliJ/Programmverwaltung/src/test/java/at/lang/programmverwaltung/persistence/file/TestForPluginDao.java
